coach 81
trash can 269
railing 39
dish 130
chair 20
carpet 29
trolley 277
tv 90
tree trunk 163
shack 80
bike 128
text 172
glass wall 271
plants 154
swivel 76
blanket 132
vase 136
flora 18
fan 140
drinking 148
fireplace 50
washing 108
windowpane 9
river water 190
sand 47
sidewalk 12
mount 17
clothes 93
shanty 80
bicycle 128
fence 33
attic 267
sign 44
bannister 96
street 88
person sitting 153
ottoman 98
side table 219
clock 149
cooking 72
stool 66
snowy mountain 178
banister 96
water 22
bookcase 63
sink 48
separation 276
path 53
fauna 127
box 42
rocky mountain 188
drawers 45
pillow 58
ash-bin 139
projection 131
deck chair 218
minibike 117
lamppost 258
vehicle 81
stage 102
small table 243
plaything 109
entrance 248
door 15
posting 101
countertop 71
kiosk 89
faucet 165
floor lamp 194
glass 148
flag 150
air conditioning 228
hutch 80
car 21
soul 13
roof 254
can 66
island 74
pouf 98
wharf 141
bus 81
drawer 193
airplane 91
dress 93
information 75
monitoring 144
magazine 208
lounge 24
lamp 37
animal 127
gate 207
ceiling lamp 151
drapery 19
creature 127
buildings 155
cocktail 65
ashcan 139
plane 91
toilet paper 266
motortruck 84
data 75
drape 19
light 83
counter 46
switch 192
truck 84
basket 113
fluorescent tube 168
bathing 38
shoes 215
trade 124
paper 179
oven 119
keyboard 204
car rear 240
machine 21
monitor 144
backpack 270
window 9
chimney 225
covered 52
central reservation 239
coffee 65
someone 13
somebody 13
food 121
auto 21
motorcoach 81
dock 141
billiard 57
silver 131
swivel chair 181
name 124
rocks 180
embankment 250
rock 35
tray 138
house 26
fish 236
plant 18
books 156
wharfage 141
double-decker 81
flower 67
staircase 60
open 50
fountain 105
hill 69
commode 66
pendent 86
washer 108
umbrella 231
sand beach 217
dirt 92
cars 186
snooker 57
base 41
pendant 86
motorbus 81
span 62
ash 139
person walking 160
card 101
bushes 169
dishwasher 130
shelves 164
route 7
mortal 13
grandstand 52
blind 64
wastebin 139
bouquet 229
goggle 90
signboard 44
double door 189
electronic 75
hood 134
toy 109
dishwashing 130
automobile 21
system 75
vitrine 56
potty 66
motorcar 21
streetlight 88
ceiling 6
shelf 25
place mat 253
hut 80
wardrobe 36
flowers 159
stairs 54
television 90
double 15
tree 5
bed 8
shower 146
stall 89
arcade machine 244
sculpture 133
booth 89
bridge 62
sconce 135
telly 90
autobus 81
mountain 17
escalator 97
washbasin 182
snow 233
couch 24
palm tree 174
chest 45
poster 101
brand 124
track 92
buffet 100
falls 114
device 75
refrigerator 51
door frame 223
windows 241
showcase 56
cover 132
pipe 214
barrel 112
painting 23
bulletin 145
stones 201
candleholder 245
ceiling fan 227
edifice 2
stove 72
chandelier 86
earth 14
ground 14
sea water 167
sideboard 100
stair 122
hassock 98
jar 177
worktop 176
icebox 51
wearing 93
plate 143
handle 216
trees 152
beam 200
outlet 170
cushion 40
hedge 196
merchandise 221
bar 78
crt 142
bag 116
river 61
automatic 108
set 90
pane 175
dustbin 139
billiard table 278
seat 32
individual 13
sea 27
computer 75
closet 36
mug 222
cuddly toy 230
bureau 45
skyscraper 49
tent 115
notice 101
screen 59
dome 256
tub 38
kitchen 72
shop window 203
cow 232
receiver 90
puff 98
canopy 107
stoplight 137
cakes 255
passenger 81
wall 1
armchair 31
pot 66
sunshade 87
pole 94
table 16
plant pot 162
boat 77
belt 106
motorbike 117
conveyor 106
natatorium 110
curtain 19
life 18
grille 202
fluorescent tubes 261
coffee table 185
teapot 257
case 56
tank 123
solid 121
runway 55
bill 101
cask 112
aeroplane 91
bathtub 38
spotlight 199
handrail 96
soil 95
purse 242
telephone 211
pedestal 41
bottles 205
bowl 191
ashbin 139
speaker 246
pouffe 98
plates 275
wheel 128
exhaust 134
ball 120
jitney 81
desk lamp 157
rail 39
beast 127
waterfall 114
moving 97
statue 198
cycle 128
hearth 50
washing machine 274
person 13
tombstone 224
bottle 99
awning 87
drawing 220
being 127
handbasket 113
marque 124
seats 171
apple 273
flooring 4
cup 187
sky 3
lake 129
bench 70
pallet 264
source 83
board 145
hat 195
bin 139
radiator 147
boxes 173
traffic 137
desk 34
press 36
pier 141
hovel 80
coffee maker 265
towel 82
chairs 235
sofa 24
signal 137
shutter 210
pavement 12
steps 54
tower 85
pillar 43
person standing 158
collapsible 115
people 209
extractor hood 238
palm 73
pall 19
charabanc 81
mirror 28
candle 197
animate 127
shrub 249
tube 90
microwave 125
cradle 118
stairway 60
conveyer 106
processing 75
rug 29
step 122
headstone 272
balustrade 96
throne 66
stone 35
placard 101
benches 262
column 43
of 45
bulletin board 206
range 72
stand 41
processor 75
road 7
swimming 110
garbage 139
mantle 19
sneaker 263
bath 38
magazines 212
bathtube 237
cubicle 89
van 103
arcade 79
brute 127
pottery 234
balusters 96
traffic lights 251
night table 161
crapper 66
pitcher 260
cabinet 11
sunblind 87
bucket 184
suitcase 259
cake 247
grass 10
display 56
toilet 66
napkin 213
videos 226
computing 75
ship 104
balcony 166
cabinets 183
floor 4
idiot 90
fencing 33
storage 123
field 30
tin 268
book 68
carpeting 29
papers 279
boob 90
trash 139
dresser 45
picture 23
shelter 115
transporter 106
pool 57
building 2
land 95
omnibus 81
flowerpot 126
apparel 93
cpu 252
